{
    "log_config":{
        "log_path":[
            "app_logs"
        ]
    }, 
    "saved_responses_config":{
        "responses_path":[
            "logging/saved_responses"
        ]
    },
    "engine_config":{
        "sql_username": "root",
        "sql_password": "AltiuS2010!?"
    },
    "ip_list":[
        "ip:port", 
        "username:password@ip:port", 
        "put all your proxies here"
    ],
    "backtrace_sender":{
        "username": "lobstrbacktraces@gmail.com",
        "password": "altius2010"
    }
}
